[
  {
    "id": 7998,
    "army": "Aleph",
    "army_id": 7999,
    "name": "Steel Phalanx",
    "legacy_name": "Steel Phalanx",
    "units": [
      {
        "comment": "Myrmidons",
        "id": 7012,
        "ava": "T"
      },
      {
        "comment": "Dactyls",
        "id": 7038,
        "ava": "4"
      },
      {
        "comment": "Thorakitai",
        "id": 7027,
        "ava": "6"
      },
      {
        "comment": "Ekdromoi",
        "id": 7024,
        "ava": "4"
      },
      {
        "comment": "Agema Marksman",
        "id": 7028,
        "ava": "2"
      },
      {
        "comment": "Myrmidon Officer",
        "id": 7011,
        "ava": "3",
        "note": "Fireteam: Enomotarchos with Myrmidons"
      },
      {
        "comment": "Achilles",
        "id": 7001,
        "ava": "1"
      },
      {
        "comment": "Achilles v2 (Hoplite Armor)",
        "id": 7002,
        "ava": "1"
      },
      {
        "comment": "Patroclus",
        "id": 7015,
        "ava": "1"
      },
      {
        "comment": "Nesaie Alke",
        "id": 7030,
        "ava": "1",
        "note": "Fireteam: Enomotarchos with Thorakitai"
      },
      {
        "comment": "Machaon",
        "id": 7033,
        "ava": "1",
        "note": "Fireteam: Enomotarchos with Myrmidons"
      },
      {
        "comment": "Eudoros",
        "id": 7029,
        "ava": "1",
        "note": "Fireteam: Enomotarchos with Myrmidons"
      },
      {
        "comment": "Phoenix",
        "id": 7034,
        "ava": "1",
        "note": "Fireteam: Enomotarchos with Myrmidons"
      },
      {
        "comment": "Ajax",
        "id": 7035,
        "ava": "1",
        "note": "Fireteam: Enomotarchos with Myrmidons"
      },
      {
        "comment": "Atalanta",
        "id": 7031,
        "ava": "1"
      },
      {
        "comment": "Diomedes",
        "id": 7032,
        "ava": "1"
      },
      {
        "comment": "Penthesilea",
        "id": 7036,
        "ava": "1"
      },
      {
        "comment": "Thamyris",
        "id": 7037,
        "ava": "1"
      },
      {
        "comment": "Drakios",
        "id": 7040,
        "ava": "1"
      },
      {
        "comment": "Scylla",
        "id": 7041,
        "ava": "1"
      },
      {
        "comment": "Acmon, Sergeant of Dactyls",
        "id": 7042,
        "ava": "4",
        "note": "Fireteam: Enomotarchos with Dactyls"
      },
      {
        "comment": "Teucer",
        "id": 7039,
        "ava": "1"
      },
      {
        "comment": "Andromeda",
        "id": 7046,
        "ava": "1"
      },
      {
        "comment": "Hector, Homeridae's Champion",
        "id": 7043,
        "ava": "1",
        "note": "Fireteam: Enomotarchos with Myrmidons, Thorakitai, or Dactyls"
      },
      {
        "comment": "Daleth Rebots",
        "id": 7005,
        "ava": "2"
      },
      {
        "comment": "Zayin Rebots",
        "id": 7020,
        "ava": "1"
      },
      {
        "comment": "Samekh Rebots",
        "id": 7017,
        "ava": "1"
      },
      {
        "comment": "Lamedh Rebots",
        "id": 7009,
        "ava": "2"
      },
      {
        "comment": "Yudbots",
        "id": 7019,
        "ava": "4"
      },
      {
        "comment": "Netrods",
        "id": 7014,
        "ava": "2"
      },
      {
        "comment": "Probots",
        "id": 7016,
        "ava": "1"
      },
      {
        "comment": "Chandra Spec-Ops",
        "id": 7025,
        "ava": "1"
      },
      {
        "comment": "Chandra Sergeant Thrasymedes",
        "id": 7026,
        "ava": "1",
        "note": "Fireteam: Enomotarchos with Thorakitai (non-infiltrating version)"
      },
      {
        "comment": "Warcor",
        "id": 9017,
        "ava": "1"
      }
    ]
  }
]
