[
  {
    "id": 6997,
    "army": "Combined Army",
    "army_id": 6999,
    "name": "Morat Aggression Force",
    "legacy_name": "Morat Aggression Force",
    "units": [
      {
        "comment": "Morat Vanguard Infantry",
        "id": 6001,
        "ava": "T",
        "linkable": true
      },
      {
        "comment": "Kurgat Reg. of Assault Engineers",
        "id": 6022,
        "ava": "3",
        "note": "Autocannon may not join Fireteam: Haris"
      },
      {
        "comment": "Yaogat Strike Infantry",
        "id": 6036,
        "ava": "5",
        "childs": [
          {
            "comment": "Lieutenant - SWC cost is only 0 in Morat Aggression Force ",
            "id": 2,
            "swc": "0"
          }
        ],
        "linkable": true
      },
      {
        "comment": "Rodok",
        "id": 6006,
        "ava": "5",
        "childs": [
          {
            "comment": "Lieutenant - SWC cost is only 0 in Morat Aggression Force ",
            "id": 7,
            "swc": "0"
          }
        ],
        "linkable": true
      },
      {
        "comment": "Rasyat Diplomatic Division",
        "id": 6023,
        "ava": "3"
      },
      {
        "comment": "Raktorak",
        "id": 6047,
        "ava": "2",
        "note": "1 Raktorak may join a Fireteam: Core or Haris of Suryats"
      },
      {
        "comment": "Suryats",
        "id": 6048,
        "ava": "5",
        "childs": [
          {
            "comment": "Lieutenant - SWC cost is only 0 in Morat Aggression Force ",
            "id": 2,
            "swc": "0"
          }
        ],
        "linkable": true,
        "note": "Fireteam: Core or Haris may include 1 Raktorak and/or Kornak"
      },
      {
        "comment": "Sogarat Tempest Regiment",
        "id": 6034,
        "ava": "3"
      },
      {
        "comment": "Raicho Armoured Brigade",
        "id": 6008,
        "ava": "2"
      },
      {
        "comment": "Zerat Special Missions Regiment",
        "id": 6037,
        "ava": "3"
      },
      {
        "comment": "Dāturazi Witch-Soldiers",
        "id": 6013,
        "ava": "T",
        "linkable": true
      },
      {
        "comment": "Oznat",
        "id": 6049,
        "ava": "2",
        "linkable": true,
        "note": "Fireteam: Core of up to 4 Gakis/Pretas and 1-2 Oznat"
      },
      {
        "comment": "Kornak Gazarot",
        "id": 6050,
        "ava": "1",
        "childs": [
          {
            "comment": "Lieutenant - SWC cost is only 0 in Morat Aggression Force ",
            "id": 2,
            "swc": "0"
          }
        ],
        "linkable": true,
        "note": "Fireteam: Core of Kornak, up to 4 Suryats, and 0-1 Raktorak<br>Fireteam: Haris of Kornak and up to 2 Suryats or 2 Sogarats"
      },
      {
        "comment": "The Hungries: \"Gakis\"",
        "id": 6014,
        "ava": "4",
        "linkable": true,
        "note": "Fireteam: Core of up to 4 Gakis/Pretas and 1-2 Oznat"
      },
      {
        "comment": "The Hungries: \"Pretas\"",
        "id": 6015,
        "ava": "4",
        "linkable": true,
        "note": "Fireteam: Core of up to 4 Gakis/Pretas and 1-2 Oznat"
      },
      {
        "comment": "Med-Tech Obsidon Medchanoid",
        "id": 6016,
        "ava": "1"
      },
      {
        "comment": "M-Drone",
        "id": 6017,
        "ava": "1"
      },
      {
        "comment": "Q-Drone",
        "id": 6018,
        "ava": "1"
      },
      {
        "comment": "T-Drone",
        "id": 6019,
        "ava": "1"
      },
      {
        "comment": "R-Drone",
        "id": 6020,
        "ava": "1"
      },
      {
        "comment": "E-Drone",
        "id": 6051,
        "ava": "1"
      },
      {
        "comment": "Slave Drones",
        "id": 6033,
        "ava": "2"
      },
      {
        "comment": "Ikadron Batroids",
        "id": 6042,
        "ava": "2"
      },
      {
        "comment": "Treitak Spec-Ops",
        "id": 6039,
        "ava": "1"
      },
      {
        "comment": "Corax Spec-Ops",
        "id": 6041,
        "ava": "1"
      },
      {
        "comment": "Treitak Anyat",
        "id": 6040,
        "ava": "1",
        "linkable": true,
        "note": "Counts as Vanguard for Fireteam composition"
      },
      {
        "comment": "Bit & Kiss!",
        "id": 6056,
        "ava": "1"
      },
      {
        "comment": "Krakot Renegades, Morat Fugitives",
        "id": 9023,
        "ava": "3"
      }
    ]
  }
]
